         run       event       nTopo   nIdTracks  nTauTracks       nTaus      nMuons       nElec   nTrueElec   nFakeElec       nPhot   nTruePhot   nFakePhot
      242000     3120001         236           8           3           1           1           0           0           0           0           0           0
      242000     3120002         169           7           0           0           1           0           0           0           0           0           0
      242000     3120003         366          35           5           3           2           3           0           3           2           1           1
      242000     3120004         179          10           5           1           0           0           0           0           0           0           0
      242000     3120005         358          34           5           1           3           0           0           0           2           0           2
